Data wrangling and visualisation
…
Following are some examples of how the bagyo dataset can
be used to demonstrate various data wrangling approaches, particularly
those using the tidyverse packages.

Creating summaries

## Get number of cyclone categories per year ----
bagyo |>
  group_by(year, category_name) |>
  count() |>
  group_by(year) |>
  complete(category_name) |>
  ungroup()
#> # A tibble: 30 × 3
#>     year category_name             n
#>    <dbl> <fct>                 <int>
#>  1  2017 Tropical Depression       5
#>  2  2017 Tropical Storm            9
#>  3  2017 Severe Tropical Storm     5
#>  4  2017 Typhoon                   3
#>  5  2017 Super Typhoon            NA
#>  6  2018 Tropical Depression       4
#>  7  2018 Tropical Storm            7
#>  8  2018 Severe Tropical Storm     4
#>  9  2018 Typhoon                   6
#> 10  2018 Super Typhoon            NA
#> # ℹ 20 more rows
…
## Get number of cyclones per month by year ----
bagyo |>
  mutate(month = month(start, label = TRUE)) |>
  group_by(month, year) |>
  count() |>
  ungroup() |>
  complete(month, year, fill = list(n = 0)) |>
  arrange(year, month)
#> # A tibble: 72 × 3
#>    month  year     n
#>    <ord> <dbl> <int>
#>  1 Jan    2017     1
#>  2 Feb    2017     1
#>  3 Mar    2017     0
#>  4 Apr    2017     2
#>  5 May    2017     0
#>  6 Jun    2017     0
#>  7 Jul    2017     4
#>  8 Aug    2017     2
#>  9 Sep    2017     4
#> 10 Oct    2017     3
#> # ℹ 62 more rows
…
